test/testbenches/sra_2/result.vcd
$date
	Thu Dec 16 14:42:04 2021
$end
$version
	Icarus Verilog
$end
$timescale
	1s
$end
$scope module testing_tb $end
$var wire 32 ! writedata [31:0] $end
$var wire 1 " write $end
$var wire 32 # shifted_address [31:0] $end
$var wire 32 $ register_v0 [31:0] $end
$var wire 1 % read $end
$var wire 4 & byteenable [3:0] $end
$var wire 32 ' address [31:0] $end
$var wire 1 ( active $end
$var reg 1 ) clk $end
$var reg 32 * readdata [31:0] $end
$var reg 1 + reset $end
$var reg 1 , waitrequest $end
$scope module m1 $end
$var wire 1 ) clk $end
$var wire 32 - readdata [31:0] $end
$var wire 1 + reset $end
$var wire 1 , waitrequest $end
$var wire 1 . xorr $end
$var wire 1 / xori $end
$var wire 32 0 writedata [31:0] $end
$var wire 1 1 write_enable_ld $end
$var wire 1 2 write_enable_PC $end
$var wire 1 3 write_enable_ALU $end
$var wire 32 4 write_data_ld [31:0] $end
$var wire 32 5 write_data_PC [31:0] $end
$var wire 32 6 write_data_ALU [31:0] $end
$var wire 1 " write $end
$var wire 1 7 sw $end
$var wire 1 8 subu $end
$var wire 2 9 state [1:0] $end
$var wire 1 : srlv $end
$var wire 1 ; srl $end
$var wire 1 < srav $end
$var wire 1 = sra $end
$var wire 1 > sltu $end
$var wire 1 ? sltiu $end
$var wire 1 @ slti $end
$var wire 1 A slt $end
$var wire 1 B sllv $end
$var wire 1 C sll $end
$var wire 5 D shamt [4:0] $end
$var wire 1 E sh $end
$var wire 1 F sb $end
$var wire 5 G rt [4:0] $end
$var wire 5 H rs [4:0] $end
$var wire 32 I register_v0 [31:0] $end
$var wire 1 % read $end
$var wire 5 J rd [4:0] $end
$var wire 1 K rType $end
$var wire 1 L orr $end
$var wire 1 M ori $end
$var wire 1 N multu $end
$var wire 1 O mult $end
$var wire 1 P mtlo $end
$var wire 1 Q mthi $end
$var wire 1 R mflo $end
$var wire 1 S mfhi $end
$var wire 1 T lwr $end
$var wire 1 U lwl $end
$var wire 1 V lw $end
$var wire 1 W lui $end
$var wire 1 X link $end
$var wire 1 Y lhu $end
$var wire 1 Z lh $end
$var wire 1 [ lbu $end
$var wire 1 \ lb $end
$var wire 1 ] jr $end
$var wire 1 ^ jalr $end
$var wire 1 _ jal $end
$var wire 1 ` j $end
$var wire 32 a instruction [31:0] $end
$var wire 16 b immediate [15:0] $end
$var wire 1 c divu $end
$var wire 1 d div $end
$var wire 32 e data_rt [31:0] $end
$var wire 32 f data_rs [31:0] $end
$var wire 4 g byteenable_ld [3:0] $end
$var wire 4 h byteenable [3:0] $end
$var wire 1 i bne $end
$var wire 1 j bltzal $end
$var wire 1 k bltz $end
$var wire 1 l blez $end
$var wire 1 m bgtz $end
$var wire 1 n bgezal $end
$var wire 1 o bgez $end
$var wire 1 p beq $end
$var wire 1 q andr $end
$var wire 1 r andi $end
$var wire 1 s addu $end
$var wire 32 t address [31:0] $end
$var wire 1 u addiu $end
$var wire 1 ( active $end
$var wire 1 v STALL $end
$var wire 32 w PC [31:0] $end
$var wire 26 x J_address [25:0] $end
$scope module NXT $end
$var wire 32 y PC_out [31:0] $end
$var wire 1 ) clk $end
$var wire 1 + rst $end
$var wire 32 z write_data_PC [31:0] $end
$var wire 32 { sign_I_im [31:0] $end
$var wire 32 | r_t [31:0] $end
$var wire 32 } r_s [31:0] $end
$var wire 1 v STALL $end
$var wire 26 ~ J_intermidiete [25:0] $end
$var wire 1 ] JR $end
$var wire 1 ^ JALR $end
$var wire 1 _ JAL $end
$var wire 1 ` J $end
$var wire 16 !" I_intermidiete [15:0] $end
$var wire 1 i BNE $end
$var wire 1 j BLTZAL $end
$var wire 1 k BLTZ $end
$var wire 1 l BLEZ $end
$var wire 1 m BGTZ $end
$var wire 1 n BGEZAL $end
$var wire 1 o BGEZ $end
$var wire 1 p BEQ $end
$var reg 32 "" PC [31:0] $end
$var reg 32 #" PC_next [31:0] $end
$var reg 32 $" PC_next_next [31:0] $end
$var reg 1 ( active $end
$var reg 1 %" jump $end
$var reg 1 &" jump_addition $end
$var reg 32 '" jump_amount [31:0] $end
$var reg 1 X link $end
$var reg 2 (" state [1:0] $end
$var reg 1 2 write_enable_PC $end
$upscope $end
$scope module a1 $end
$var wire 1 ) clk $end
$var wire 2 )" state [1:0] $end
$var wire 32 *" zeroim [31:0] $end
$var wire 1 . xorr $end
$var wire 1 / xori $end
$var wire 1 8 subu $end
$var wire 1 : srlv $end
$var wire 1 ; srl $end
$var wire 1 < srav $end
$var wire 1 = sra $end
$var wire 1 > sltu $end
$var wire 1 ? sltiu $end
$var wire 1 @ slti $end
$var wire 1 A slt $end
$var wire 1 B sllv $end
$var wire 1 C sll $end
$var wire 32 +" signim [31:0] $end
$var wire 32 ," signedim [31:0] $end
$var wire 5 -" sa [4:0] $end
$var wire 1 L orr $end
$var wire 1 M ori $end
$var wire 1 N multu $end
$var wire 1 O mult $end
$var wire 1 P mtlo $end
$var wire 1 Q mthi $end
$var wire 1 R mflo $end
$var wire 1 S mfhi $end
$var wire 16 ." immediate [15:0] $end
$var wire 1 c divu $end
$var wire 1 d div $end
$var wire 1 q andr $end
$var wire 1 r andi $end
$var wire 1 s addu $end
$var wire 1 u addiu $end
$var wire 32 /" Rtsigned [31:0] $end
$var wire 32 0" Rtdata [31:0] $end
$var wire 32 1" Rssigned [31:0] $end
$var wire 32 2" Rsdata [31:0] $end
$var reg 32 3" data [31:0] $end
$var reg 32 4" datahi [31:0] $end
$var reg 32 5" datalo [31:0] $end
$var reg 32 6" hi [31:0] $end
$var reg 32 7" lo [31:0] $end
$var reg 64 8" multi [63:0] $end
$var reg 1 3 reg_writeenable $end
$upscope $end
$scope module d1 $end
$var wire 1 v STALL $end
$var wire 1 s addu $end
$var wire 1 q andr $end
$var wire 1 o bgez $end
$var wire 1 n bgezal $end
$var wire 1 m bgtz $end
$var wire 1 l blez $end
$var wire 1 k bltz $end
$var wire 1 j bltzal $end
$var wire 1 d div $end
$var wire 1 c divu $end
$var wire 1 ^ jalr $end
$var wire 1 ] jr $end
$var wire 1 S mfhi $end
$var wire 1 R mflo $end
$var wire 1 Q mthi $end
$var wire 1 P mtlo $end
$var wire 1 O mult $end
$var wire 1 N multu $end
$var wire 1 L orr $end
$var wire 1 C sll $end
$var wire 1 B sllv $end
$var wire 1 A slt $end
$var wire 1 > sltu $end
$var wire 1 = sra $end
$var wire 1 < srav $end
$var wire 1 ; srl $end
$var wire 1 : srlv $end
$var wire 1 8 subu $end
$var wire 1 , waitrequest $end
$var wire 1 . xorr $end
$var wire 1 / xori $end
$var wire 1 7 sw $end
$var wire 1 ? sltiu $end
$var wire 1 @ slti $end
$var wire 5 9" shamt [4:0] $end
$var wire 1 E sh $end
$var wire 1 F sb $end
$var wire 5 :" rt [4:0] $end
$var wire 5 ;" rs [4:0] $end
$var wire 5 <" rd [4:0] $end
$var wire 1 K rType $end
$var wire 1 M ori $end
$var wire 6 =" opcode [5:0] $end
$var wire 1 T lwr $end
$var wire 1 U lwl $end
$var wire 1 V lw $end
$var wire 1 W lui $end
$var wire 1 Y lhu $end
$var wire 1 Z lh $end
$var wire 1 [ lbu $end
$var wire 1 \ lb $end
$var wire 1 _ jal $end
$var wire 1 ` j $end
$var wire 32 >" instruction [31:0] $end
$var wire 16 ?" immediate [15:0] $end
$var wire 6 @" funct [5:0] $end
$var wire 1 i bne $end
$var wire 1 p beq $end
$var wire 1 r andi $end
$var wire 26 A" address [25:0] $end
$var wire 1 u addiu $end
$var reg 1 B" s $end
$upscope $end
$scope module l1 $end
$var wire 32 C" PC_in [31:0] $end
$var wire 1 ) clk $end
$var wire 32 D" instruction_out [31:0] $end
$var wire 1 \ lb $end
$var wire 1 [ lbu $end
$var wire 1 Z lh $end
$var wire 1 Y lhu $end
$var wire 1 W lui $end
$var wire 1 V lw $end
$var wire 1 U lwl $end
$var wire 1 T lwr $end
$var wire 32 E" mem_readdata_flipped [31:0] $end
$var wire 16 F" offset [15:0] $end
$var wire 5 G" rt [4:0] $end
$var wire 1 F sb $end
$var wire 1 E sh $end
$var wire 2 H" state [1:0] $end
$var wire 1 7 sw $end
$var wire 1 , waitrequest $end
$var wire 32 I" rt_data [31:0] $end
$var wire 32 J" rs_data [31:0] $end
$var wire 32 K" offset_sign_extended [31:0] $end
$var wire 32 L" mem_writedata_flipped [31:0] $end
$var wire 32 M" mem_readdata [31:0] $end
$var wire 32 N" mem_address [31:0] $end
$var wire 32 O" actual_address [31:0] $end
$var reg 32 P" IR [31:0] $end
$var reg 4 Q" mem_byteenable [3:0] $end
$var reg 1 % mem_readenable $end
$var reg 32 R" mem_writedata [31:0] $end
$var reg 1 " mem_writeenable $end
$var reg 4 S" reg_byteenable [3:0] $end
$var reg 32 T" reg_writedata [31:0] $end
$var reg 1 1 reg_writeenable $end
$upscope $end
$scope module r1 $end
$var wire 5 U" addr_rd [4:0] $end
$var wire 5 V" addr_rs [4:0] $end
$var wire 5 W" addr_rt [4:0] $end
$var wire 4 X" byteenable_ld [3:0] $end
$var wire 1 ) clk $end
$var wire 1 X link $end
$var wire 1 K rType $end
$var wire 1 + rst $end
$var wire 2 Y" state [1:0] $end
$var wire 32 Z" v0 [31:0] $end
$var wire 32 [" write_data_ALU [31:0] $end
$var wire 32 \" write_data_PC [31:0] $end
$var wire 32 ]" write_data_ld [31:0] $end
$var wire 1 3 write_enable_ALU $end
$var wire 1 2 write_enable_PC $end
$var wire 1 1 write_enable_ld $end
$var reg 4 ^" byteenable [3:0] $end
$var reg 32 _" read_data_1 [31:0] $end
$var reg 32 `" read_data_2 [31:0] $end
$var reg 5 a" write_addr [4:0] $end
$var reg 32 b" write_data [31:0] $end
$var reg 1 c" write_enable $end
$var integer 32 d" i [31:0] $end
$upscope $end
$upscope $end
$upscope $end
$enddefinitions $end
#0
$dumpvars
b100000 d"
0c"
bx b"
bx a"
b0 `"
b0 _"
bx ^"
b0 ]"
b10111111110000000000000000001000 \"
b0 ["
b0 Z"
b0 Y"
b1111 X"
b0 W"
b0 V"
b0 U"
b0 T"
b1111 S"
b0 R"
b1111 Q"
b0 P"
b0 O"
b10111111110000000000000000000000 N"
bx M"
b0 L"
b0 K"
b0 J"
b0 I"
b0 H"
b0 G"
b0 F"
bx E"
b0 D"
b10111111110000000000000000000000 C"
0B"
b0 A"
b0 @"
b0 ?"
b0 >"
b0 ="
b0 <"
b0 ;"
b0 :"
b0 9"
bx 8"
bx 7"
bx 6"
bx 5"
bx 4"
b0 3"
b0 2"
b0 1"
b0 0"
b0 /"
b0 ."
b0 -"
b0 ,"
b0 +"
b0 *"
b0 )"
b0 ("
b0 '"
0&"
0%"
b10111111110000000000000000001000 $"
b10111111110000000000000000000100 #"
b10111111110000000000000000000000 ""
b0 !"
b0 ~
b0 }
b0 |
b0 {
b10111111110000000000000000001000 z
b10111111110000000000000000000000 y
b0 x
b10111111110000000000000000000000 w
0v
0u
b10111111110000000000000000000000 t
0s
0r
0q
0p
0o
0n
0m
0l
0k
0j
0i
b1111 h
b1111 g
b0 f
b0 e
0d
0c
b0 b
b0 a
0`
0_
0^
0]
0\
0[
0Z
0Y
0X
0W
0V
0U
0T
0S
0R
0Q
0P
0O
0N
0M
0L
1K
b0 J
b0 I
b0 H
b0 G
0F
0E
b0 D
1C
0B
0A
0@
0?
0>
0=
0<
0;
0:
b0 9
08
07
b0 6
b10111111110000000000000000001000 5
b0 4
13
02
01
b0 0
0/
0.
bx -
x,
0+
bx *
0)
0(
b10111111110000000000000000000000 '
b1111 &
1%
b0 $
b0 #
0"
b0 !
$end
#10
03
xs
xq
xd
xc
x^
x]
xQ
xP
xS
xR
xO
xN
xL
xC
xB
xA
x>
x=
x<
x;
x:
x8
x.
bx K"
bx00 {
bx 6
bx 3"
bx ["
xo
xn
xm
xl
xk
xj
bx e
bx |
bx /"
bx 0"
bx I"
bx `"
bx O"
bx f
bx }
bx 1"
bx 2"
bx J"
bx _"
bx @"
xu
xr
xp
xi
x`
x_
x\
x[
xZ
xY
xW
xV
xU
xT
xM
xF
xE
x@
x?
x7
x/
xK
bx ="
bx x
bx ~
bx A"
bx ,"
b0xxxxxxxxxxxxxxxx *"
bx +"
bx b
bx !"
bx ."
bx ?"
bx F"
bx D
bx -"
bx 9"
bx J
bx <"
bx U"
bx G
bx :"
bx G"
bx W"
bx H
bx ;"
bx V"
bx a
bx >"
bx D"
bx P"
bx #
bx00 '
bx00 t
bx00 N"
b1 9
b1 ("
b1 )"
b1 H"
b1 Y"
1)
#20
0)
#30
0%
b10 9
b10 ("
b10 )"
b10 H"
b10 Y"
1)
#40
1+
0)
#50
1%
b0 #
b10111111110000000000000000000000 '
b10111111110000000000000000000000 t
b10111111110000000000000000000000 N"
1(
b0 9
b0 ("
b0 )"
b0 H"
b0 Y"
b10111111110000000000000000000100 #"
b10111111110000000000000000001000 5
b10111111110000000000000000001000 z
b10111111110000000000000000001000 \"
b10111111110000000000000000000000 w
b10111111110000000000000000000000 y
b10111111110000000000000000000000 C"
b10111111110000000000000000000000 ""
b100000 d"
1)
#60
0+
0)
#70
b11111111111111111011111111000000 O"
0s
0q
0d
0c
0^
0]
0Q
0P
0S
0R
0O
0N
0L
0C
0B
0A
0>
0=
0<
0;
0:
08
0.
b11111111111111111011111111000000 K"
b11111111111111101111111100000000 {
0o
0n
0m
0l
0k
0j
b0 e
b0 |
b0 /"
b0 0"
b0 I"
b0 `"
b0 f
b0 }
b0 1"
b0 2"
b0 J"
b0 _"
b0 @"
0u
0r
0p
0i
0`
0_
0\
0[
0Z
0Y
1W
0V
0U
0T
0M
0F
0E
0@
0?
07
0/
0K
b1111 ="
b10001011111111000000 x
b10001011111111000000 ~
b10001011111111000000 A"
b11111111111111111011111111000000 ,"
b1011111111000000 *"
b11111111111111111011111111000000 +"
b1011111111000000 b
b1011111111000000 !"
b1011111111000000 ."
b1011111111000000 ?"
b1011111111000000 F"
b11111 D
b11111 -"
b11111 9"
b10111 J
b10111 <"
b10111 U"
b1000 G
b1000 :"
b1000 G"
b1000 W"
b0 H
b0 ;"
b0 V"
b111100000010001011111111000000 a
b111100000010001011111111000000 >"
b111100000010001011111111000000 D"
b111100000010001011111111000000 P"
b1000000001111111011111111000000 #
b11111111111111111011111111000000 '
b11111111111111111011111111000000 t
b11111111111111111011111111000000 N"
b111100000010001011111111000000 M"
b1 9
b1 ("
b1 )"
b1 H"
b1 Y"
b11000000101111110000100000111100 *
b11000000101111110000100000111100 -
b11000000101111110000100000111100 E"
1)
#80
0)
#90
b1111 ^"
b10111111110000000000000000000000 b"
b1000 a"
1c"
bx M"
b10111111110000000000000000000000 4
b10111111110000000000000000000000 T"
b10111111110000000000000000000000 ]"
11
0%
bx *
bx -
bx E"
b10 9
b10 ("
b10 )"
b10 H"
b10 Y"
1)
#100
0)
#110
0c"
1%
01
b100 #
b10111111110000000000000000000100 '
b10111111110000000000000000000100 t
b10111111110000000000000000000100 N"
b10111111110000000000000000001100 $"
b10111111110000000000000000000000 e
b10111111110000000000000000000000 |
b10111111110000000000000000000000 /"
b10111111110000000000000000000000 0"
b10111111110000000000000000000000 I"
b10111111110000000000000000000000 `"
b0 9
b0 ("
b0 )"
b0 H"
b0 Y"
b10111111110000000000000000001000 #"
b10111111110000000000000000001100 5
b10111111110000000000000000001100 z
b10111111110000000000000000001100 \"
b10111111110000000000000000000100 w
b10111111110000000000000000000100 y
b10111111110000000000000000000100 C"
b10111111110000000000000000000100 ""
1)
#120
0)
#130
0s
0q
0d
0c
0^
0]
0Q
0P
0S
0R
0O
0N
0L
0C
0B
0A
0>
0=
0<
0;
0:
08
0.
b11111111111111111010000000000000 K"
b11111111111111101000000000000000 {
0o
0n
0m
0l
0k
0j
b0 e
b0 |
b0 /"
b0 0"
b0 I"
b0 `"
b11111111111111111010000000000000 O"
b0 f
b0 }
b0 1"
b0 2"
b0 J"
b0 _"
b0 @"
0u
0r
0p
0i
0`
0_
0\
0[
0Z
0Y
1W
0V
0U
0T
0M
0F
0E
0@
0?
07
0/
0K
b1111 ="
b10011010000000000000 x
b10011010000000000000 ~
b10011010000000000000 A"
b11111111111111111010000000000000 ,"
b1010000000000000 *"
b11111111111111111010000000000000 +"
b1010000000000000 b
b1010000000000000 !"
b1010000000000000 ."
b1010000000000000 ?"
b1010000000000000 F"
b0 D
b0 -"
b0 9"
b10100 J
b10100 <"
b10100 U"
b1001 G
b1001 :"
b1001 G"
b1001 W"
b0 H
b0 ;"
b0 V"
b111100000010011010000000000000 M"
b111100000010011010000000000000 a
b111100000010011010000000000000 >"
b111100000010011010000000000000 D"
b111100000010011010000000000000 P"
b1000000001111111010000000000000 #
b11111111111111111010000000000000 '
b11111111111111111010000000000000 t
b11111111111111111010000000000000 N"
b101000000000100100111100 *
b101000000000100100111100 -
b101000000000100100111100 E"
b1 9
b1 ("
b1 )"
b1 H"
b1 Y"
1)
#140
0)
#150
b10100000000000000000000000000000 b"
b1001 a"
1c"
b10100000000000000000000000000000 4
b10100000000000000000000000000000 T"
b10100000000000000000000000000000 ]"
11
0%
bx M"
b10 9
b10 ("
b10 )"
b10 H"
b10 Y"
bx *
bx -
bx E"
1)
#160
0)
#170
0c"
1%
01
b1000 #
b10111111110000000000000000001000 '
b10111111110000000000000000001000 t
b10111111110000000000000000001000 N"
b10111111110000000000000000010000 $"
b10100000000000000000000000000000 e
b10100000000000000000000000000000 |
b10100000000000000000000000000000 /"
b10100000000000000000000000000000 0"
b10100000000000000000000000000000 I"
b10100000000000000000000000000000 `"
b0 9
b0 ("
b0 )"
b0 H"
b0 Y"
b10111111110000000000000000001100 #"
b10111111110000000000000000010000 5
b10111111110000000000000000010000 z
b10111111110000000000000000010000 \"
b10111111110000000000000000001000 w
b10111111110000000000000000001000 y
b10111111110000000000000000001000 C"
b10111111110000000000000000001000 ""
1)
#180
0)
#190
13
b11111111111111111111111111111110 6
b11111111111111111111111111111110 3"
b11111111111111111111111111111110 ["
1=
b1011110000011 O"
b1011110000011 K"
b101111000001100 {
b11 @"
0W
1K
b0 ="
b10010001011110000011 x
b10010001011110000011 ~
b10010001011110000011 A"
b1011110000011 ,"
b1011110000011 *"
b1011110000011 +"
b1011110000011 b
b1011110000011 !"
b1011110000011 ."
b1011110000011 ?"
b1011110000011 F"
b11110 D
b11110 -"
b11110 9"
b10 J
b10 <"
b10 U"
b10010001011110000011 a
b10010001011110000011 >"
b10010001011110000011 D"
b10010001011110000011 P"
b1000000010000000001011110000000 #
b1011110000000 '
b1011110000000 t
b1011110000000 N"
b10010001011110000011 M"
b1 9
b1 ("
b1 )"
b1 H"
b1 Y"
b10000011000101110000100100000000 *
b10000011000101110000100100000000 -
b10000011000101110000100100000000 E"
1)
#200
0)
#210
bx M"
0%
b11111111111111111111111111111110 b"
b10 a"
1c"
bx *
bx -
bx E"
b10 9
b10 ("
b10 )"
b10 H"
b10 Y"
1)
#220
0)
#230
1%
b1100 #
b10111111110000000000000000001100 '
b10111111110000000000000000001100 t
b10111111110000000000000000001100 N"
b10111111110000000000000000010100 $"
0c"
b0 9
b0 ("
b0 )"
b0 H"
b0 Y"
b10111111110000000000000000010000 #"
b10111111110000000000000000010100 5
b10111111110000000000000000010100 z
b10111111110000000000000000010100 \"
b10111111110000000000000000001100 w
b10111111110000000000000000001100 y
b10111111110000000000000000001100 C"
b10111111110000000000000000001100 ""
b11111111111111111111111111111110 $
b11111111111111111111111111111110 I
b11111111111111111111111111111110 Z"
1)
#240
0)
#250
b11111110111111111111111111111111 !
b11111110111111111111111111111111 0
b11111110111111111111111111111111 L"
03
b11111111111111111111111111111110 R"
0%
1"
0s
0q
0d
0c
0^
0]
0Q
0P
0S
0R
0O
0N
0L
0C
0B
0A
0>
0=
0<
0;
0:
08
0.
b100000000 K"
b10000000000 {
bx 6
bx 3"
bx ["
0o
0n
0m
0l
0k
0j
b11111111111111111111111111111110 e
b11111111111111111111111111111110 |
b11111111111111111111111111111110 /"
b11111111111111111111111111111110 0"
b11111111111111111111111111111110 I"
b11111111111111111111111111111110 `"
b10111111110000000000000100000000 O"
b10111111110000000000000000000000 f
b10111111110000000000000000000000 }
b10111111110000000000000000000000 1"
b10111111110000000000000000000000 2"
b10111111110000000000000000000000 J"
b10111111110000000000000000000000 _"
b0 @"
0u
0r
0p
0i
0`
0_
0\
0[
0Z
0Y
0W
0V
0U
0T
0M
0F
0E
0@
0?
17
0/
0K
b101011 ="
b1000000100000000100000000 x
b1000000100000000100000000 ~
b1000000100000000100000000 A"
b100000000 ,"
b100000000 *"
b100000000 +"
b100000000 b
b100000000 !"
b100000000 ."
b100000000 ?"
b100000000 F"
b100 D
b100 -"
b100 9"
b0 J
b0 <"
b0 U"
b10 G
b10 :"
b10 G"
b10 W"
b1000 H
b1000 ;"
b1000 V"
b10101101000000100000000100000000 M"
b10101101000000100000000100000000 a
b10101101000000100000000100000000 >"
b10101101000000100000000100000000 D"
b10101101000000100000000100000000 P"
b100000000 #
b10111111110000000000000100000000 '
b10111111110000000000000100000000 t
b10111111110000000000000100000000 N"
b10000001010101101 *
b10000001010101101 -
b10000001010101101 E"
b1 9
b1 ("
b1 )"
b1 H"
b1 Y"
1)
#260
0)
#270
0"
bx M"
b10 9
b10 ("
b10 )"
b10 H"
b10 Y"
bx *
bx -
bx E"
1)
#280
0)
#290
b11111111111111111111111111111110 M"
1%
b10000 #
b10111111110000000000000000010000 '
b10111111110000000000000000010000 t
b10111111110000000000000000010000 N"
b10111111110000000000000000011000 $"
b11111110111111111111111111111111 *
b11111110111111111111111111111111 -
b11111110111111111111111111111111 E"
b0 9
b0 ("
b0 )"
b0 H"
b0 Y"
b10111111110000000000000000010100 #"
b10111111110000000000000000011000 5
b10111111110000000000000000011000 z
b10111111110000000000000000011000 \"
b10111111110000000000000000010000 w
b10111111110000000000000000010000 y
b10111111110000000000000000010000 C"
b10111111110000000000000000010000 ""
1)
#300
0)
#310
b111000000000000 K"
b11100000000000000 {
b10100000000000000000000000000000 e
b10100000000000000000000000000000 |
b10100000000000000000000000000000 /"
b10100000000000000000000000000000 0"
b10100000000000000000000000000000 I"
b10100000000000000000000000000000 `"
b111000000000000 O"
b0 f
b0 }
b0 1"
b0 2"
b0 J"
b0 _"
1W
07
b1111 ="
b10010111000000000000 x
b10010111000000000000 ~
b10010111000000000000 A"
b111000000000000 ,"
b111000000000000 *"
b111000000000000 +"
b111000000000000 b
b111000000000000 !"
b111000000000000 ."
b111000000000000 ?"
b111000000000000 F"
b0 D
b0 -"
b0 9"
b1110 J
b1110 <"
b1110 U"
b1001 G
b1001 :"
b1001 G"
b1001 W"
b0 H
b0 ;"
b0 V"
0%
0"
b111100000010010111000000000000 a
b111100000010010111000000000000 >"
b111100000010010111000000000000 D"
b111100000010010111000000000000 P"
b1000000010000000111000000000000 #
b111000000000000 '
b111000000000000 t
b111000000000000 N"
b111100000010010111000000000000 M"
b1 9
b1 ("
b1 )"
b1 H"
b1 Y"
b11100000000100100111100 *
b11100000000100100111100 -
b11100000000100100111100 E"
1)
#320
0)
#330
b1110000000000000000000000000000 b"
b1001 a"
1c"
bx M"
b1110000000000000000000000000000 4
b1110000000000000000000000000000 T"
b1110000000000000000000000000000 ]"
11
bx *
bx -
bx E"
b10 9
b10 ("
b10 )"
b10 H"
b10 Y"
1)
#340
0)
#350
0c"
1%
01
b10100 #
b10111111110000000000000000010100 '
b10111111110000000000000000010100 t
b10111111110000000000000000010100 N"
b10111111110000000000000000011100 $"
b1110000000000000000000000000000 e
b1110000000000000000000000000000 |
b1110000000000000000000000000000 /"
b1110000000000000000000000000000 0"
b1110000000000000000000000000000 I"
b1110000000000000000000000000000 `"
b0 9
b0 ("
b0 )"
b0 H"
b0 Y"
b10111111110000000000000000011000 #"
b10111111110000000000000000011100 5
b10111111110000000000000000011100 z
b10111111110000000000000000011100 \"
b10111111110000000000000000010100 w
b10111111110000000000000000010100 y
b10111111110000000000000000010100 C"
b10111111110000000000000000010100 ""
1)
#360
0)
#370
13
b1 6
b1 3"
b1 ["
0s
0q
0d
0c
0^
0]
0Q
0P
0S
0R
0O
0N
0L
0C
0B
0A
0>
1=
0<
0;
0:
08
0.
b1011110000011 K"
b101111000001100 {
0o
0n
0m
0l
0k
0j
b1110000000000000000000000000000 e
b1110000000000000000000000000000 |
b1110000000000000000000000000000 /"
b1110000000000000000000000000000 0"
b1110000000000000000000000000000 I"
b1110000000000000000000000000000 `"
b1011110000011 O"
b0 f
b0 }
b0 1"
b0 2"
b0 J"
b0 _"
b11 @"
0u
0r
0p
0i
0`
0_
0\
0[
0Z
0Y
0W
0V
0U
0T
0M
0F
0E
0@
0?
07
0/
1K
b0 ="
b10010001011110000011 x
b10010001011110000011 ~
b10010001011110000011 A"
b1011110000011 ,"
b1011110000011 *"
b1011110000011 +"
b1011110000011 b
b1011110000011 !"
b1011110000011 ."
b1011110000011 ?"
b1011110000011 F"
b11110 D
b11110 -"
b11110 9"
b10 J
b10 <"
b10 U"
b1001 G
b1001 :"
b1001 G"
b1001 W"
b0 H
b0 ;"
b0 V"
b10010001011110000011 M"
b10010001011110000011 a
b10010001011110000011 >"
b10010001011110000011 D"
b10010001011110000011 P"
b1000000010000000001011110000000 #
b1011110000000 '
b1011110000000 t
b1011110000000 N"
b10000011000101110000100100000000 *
b10000011000101110000100100000000 -
b10000011000101110000100100000000 E"
b1 9
b1 ("
b1 )"
b1 H"
b1 Y"
1)
#380
0)
#390
0%
b1 b"
b10 a"
1c"
bx M"
b10 9
b10 ("
b10 )"
b10 H"
b10 Y"
bx *
bx -
bx E"
1)
#400
0)
#410
1%
b11000 #
b10111111110000000000000000011000 '
b10111111110000000000000000011000 t
b10111111110000000000000000011000 N"
b10111111110000000000000000100000 $"
0c"
b1 $
b1 I
b1 Z"
b0 9
b0 ("
b0 )"
b0 H"
b0 Y"
b10111111110000000000000000011100 #"
b10111111110000000000000000100000 5
b10111111110000000000000000100000 z
b10111111110000000000000000100000 \"
b10111111110000000000000000011000 w
b10111111110000000000000000011000 y
b10111111110000000000000000011000 C"
b10111111110000000000000000011000 ""
1)
#420
0)
#430
03
0=
b0 $"
1%"
b0 O"
b0 K"
b0 {
b0 6
b0 3"
b0 ["
b0 e
b0 |
b0 /"
b0 0"
b0 I"
b0 `"
b0 @"
1`
0K
b10 ="
b0 x
b0 ~
b0 A"
b0 ,"
b0 *"
b0 +"
b0 b
b0 !"
b0 ."
b0 ?"
b0 F"
b0 D
b0 -"
b0 9"
b0 J
b0 <"
b0 U"
b0 G
b0 :"
b0 G"
b0 W"
b1000000000000000000000000000 a
b1000000000000000000000000000 >"
b1000000000000000000000000000 D"
b1000000000000000000000000000 P"
b1000000010000000000000000000000 #
b0 '
b0 t
b0 N"
b1000000000000000000000000000 M"
b1 9
b1 ("
b1 )"
b1 H"
b1 Y"
b1000 *
b1000 -
b1000 E"
1)
#440
0)
#450
b0 M"
0%
b0 *
b0 -
b0 E"
b10 9
b10 ("
b10 )"
b10 H"
b10 Y"
1)
#460
0)
#470
1%
b11100 #
b10111111110000000000000000011100 '
b10111111110000000000000000011100 t
b10111111110000000000000000011100 N"
b0 9
b0 ("
b0 )"
b0 H"
b0 Y"
b0 #"
b10111111110000000000000000100100 5
b10111111110000000000000000100100 z
b10111111110000000000000000100100 \"
b10111111110000000000000000011100 w
b10111111110000000000000000011100 y
b10111111110000000000000000011100 C"
b10111111110000000000000000011100 ""
1)
#480
0)
#490
xs
xq
xd
xc
x^
x]
xQ
xP
xS
xR
xO
xN
xL
xB
xA
x>
x=
x<
x;
x:
x8
x.
bx K"
bx00 {
xo
xn
xm
xl
xk
xj
bx e
bx |
bx /"
bx 0"
bx I"
bx `"
bx O"
bx f
bx }
bx 1"
bx 2"
bx J"
bx _"
03
bx 6
bx 3"
bx ["
bx @"
xu
xr
xp
xi
x_
x\
x[
xZ
xY
xW
xV
xU
xT
xM
xF
xE
x@
x?
x7
x/
bx x
bx ~
bx A"
bx ,"
b0xxxxxxxxxxxxxxxx *"
bx +"
bx b
bx !"
bx ."
bx ?"
bx F"
bx D
bx -"
bx 9"
bx J
bx <"
bx U"
bx G
bx :"
bx G"
bx W"
bx H
bx ;"
bx V"
b100 $"
0%"
xC
x`
xK
bx ="
bx M"
bx a
bx >"
bx D"
bx P"
bx #
bx00 '
bx00 t
bx00 N"
bx *
bx -
bx E"
b1 9
b1 ("
b1 )"
b1 H"
b1 Y"
1)
#500
0)
#510
0%
b10 9
b10 ("
b10 )"
b10 H"
b10 Y"
1)
#520
0)
#530
1%
b1000000010000000000000000000000 #
b0 '
b0 t
b0 N"
b1000 $"
b0 9
b0 ("
b0 )"
b0 H"
b0 Y"
b100 #"
b1000 5
b1000 z
b1000 \"
b0 w
b0 y
b0 C"
b0 ""
1)
#540
0)
#550
b0 M"
0(
b0 *
b0 -
b0 E"
1)
